{
  "name": "person",
  "plural": "persons",
  "base": "User",
  "idInjection": false,
  "options": {
    "validateUpsert": true
  },
  "properties": {
    "id": {
      "type": "string",
      "id": true,
      "defaultFn": "uuidv4"
    },
    "firstName": {
      "type": "string",
      "min": 3,
      "max": 150,
      "length": 150
    },
    "lastName": {
      "type": "string",
      "min": 3,
      "max": 150,
      "length": 150
    },
    "email": {
      "type": "string",
      "max": 200,
      "length": 200
    },
    "emailVerified": {
      "type": "boolean",
      "default": false
    },
    "username": {
      "type": "string",
      "max": 20,
      "length": 20
    },
    "password": {
      "type": "string",
      "min": 8,
      "max": 72,
      "length": 72
    }
  },
  "validations": [],
  "relations": {
    "buckets": {
      "type": "hasMany",
      "model": "bucket",
      "foreignKey": "personId",
      "options": {
        "nestRemoting": true,
        "disableInclude": false
      }
    }
  },
  "acls": [],
  "methods": {
    "getBucketsAsATree": {
      "accepts": [
        {
          "arg": "id",
          "type": "string",
          "description": "Id of buckets owner"
        }
      ],
      "returns": {
        "arg": "result",
        "type": "array"
      },
      "description": [
        "It gets buckets of an user ordered as a tree"
      ],
      "http": {
        "path": "/getBucketsAsATree/:id",
        "verb": "get"
      }
    }
  }
}
